…
    ## # A tibble: 38 × 3
    ##    Name                     Cluster.x Cluster.y
    ##    <chr>                        <dbl>     <dbl>
    ##  1 Acanthidops-bairdi              14         6
    ##  2 Atlapetes-tibialis              14         6
    ##  3 Basileuterus-melanogenys        14         6
    ##  4 Buteo-jamaicensis               14         3
    ##  5 Catharus-frantzii               14         6
    ##  6 Catharus-gracilirostris         14         6
    ##  7 Chlorospingus-pileatus          14         6
    ##  8 Contopus-lugubris               14         6
    ##  9 Dendrortyx-leucophrys           14         6
    ## 10 Diglossa-plumbea                14         6
    ## # ℹ 28 more rows
…
    ## # A tibble: 37 × 3
    ##    Name                     Cluster.x Cluster.y
    ##    <chr>                        <dbl>     <dbl>
    ##  1 Asio-clamator                    2         3
    ##  2 Ciccaba-nigrolineata             2         5
    ##  3 Dacnis-cayana                    2         9
    ##  4 Elanoides-forficatus             2         9
    ##  5 Florisuga-mellivora              2        11
    ##  6 Galbula-ruficauda                2         3
    ##  7 Gymnopithys-bicolor              2         9
    ##  8 Heliomaster-longirostris         2         3
    ##  9 Henicorhina-leucosticta          2        11
    ## 10 Klais-guimeti                    2        11
    ## # ℹ 27 more rows
…
    ## # A tibble: 22 × 3
    ##    Name                    Cluster.x Cluster.y
    ##    <chr>                       <dbl>     <dbl>
    ##  1 Arremon-costaricensis           3         8
    ##  2 Camptostoma-obsoletum           3         8
    ##  3 Cantorchilus-elutus             3         2
    ##  4 Cantorchilus-semibadius         3         7
    ##  5 Chlorostilbon-assimilis         3         8
    ##  6 Dendrocincla-anabatina          3         7
    ##  7 Elaenia-chiriquensis            3         2
    ##  8 Euphonia-imitans                3         8
    ##  9 Euphonia-laniirostris           3         2
    ## 10 Hylocharis-eliciae              3         8
    ## # ℹ 12 more rows
…
    ## # A tibble: 27 × 3
    ##    Name                      Cluster.x Cluster.y
    ##    <chr>                         <dbl>     <dbl>
    ##  1 Arremon-brunneinucha              5         3
    ##  2 Aulacorhynchus-prasinus           5         3
    ##  3 Automolus-subulatus               5         9
    ##  4 Campylorhamphus-pusillus          5         3
    ##  5 Chlorospingus-flavopectus         5         3
    ##  6 Colaptes-rubiginosus              5         3
    ##  7 Corapipo-altera                   5        11
    ##  8 Dacnis-venusta                    5         9
    ##  9 Dryobates-fumigatus               5         3
    ## 10 Euphonia-minuta                   5         9
    ## # ℹ 17 more rows
…
    ## # A tibble: 29 × 3
    ##    Name                      Cluster.x Cluster.y
    ##    <chr>                         <dbl>     <dbl>
    ##  1 Agelaius-phoeniceus               9         5
    ##  2 Buteo-albonotatus                 9         3
    ##  3 Buteo-plagiatus                   9         2
    ##  4 Buteogallus-anthracinus           9         5
    ##  5 Campephilus-guatemalensis         9         9
    ##  6 Caracara-cheriway                 9         3
    ##  7 Claravis-pretiosa                 9         5
    ##  8 Columbina-minuta                  9         7
    ##  9 Columbina-passerina               9         7
    ## 10 Crax-rubra                        9         9
    ## # ℹ 19 more rows
…
### Split Clusters

    for(i in 1:length(split)){
      val=split[i]
      print(x[x$Cluster.x==val,])
      summer.look(dataframe = x,cluster = val)
    }

    ## # A tibble: 72 × 3
    ##    Name                     Cluster.x Cluster.y
    ##    <chr>                        <dbl>     <dbl>
    ##  1 Amblycercus-holosericeus        15         9
    ##  2 Buteo-brachyurus                15         2
    ##  3 Buteogallus-urubitinga          15         9
    ##  4 Capsiempis-flaveola             15        11
    ##  5 Cathartes-aura                  15         2
    ##  6 Chaetura-vauxi                  15         9
    ##  7 Ciccaba-virgata                 15         2
    ##  8 Coereba-flaveola                15         9
    ##  9 Columbina-talpacoti             15         2
    ## 10 Contopus-cinereus               15         9
    ## # ℹ 62 more rows
…
    ## # A tibble: 42 × 3
    ##    Name                       Cluster.x Cluster.y
    ##    <chr>                          <dbl>     <dbl>
    ##  1 Atlapetes-albinucha               17         8
    ##  2 Basileuterus-culicivorus          17         3
    ##  3 Basileuterus-melanotis            17         8
    ##  4 Campylopterus-hemileucurus        17         8
    ##  5 Catharus-aurantiirostris          17         8
    ##  6 Catharus-fuscater                 17         8
    ##  7 Chamaepetes-unicolor              17         3
    ##  8 Chlorophonia-callophrys           17         8
    ##  9 Colibri-cyanotus                  17         8
    ## 10 Cranioleuca-erythrops             17         3
    ## # ℹ 32 more rows
…
    ## # A tibble: 37 × 3
    ##    Name                        Cluster.x Cluster.y
    ##    <chr>                           <dbl>     <dbl>
    ##  1 Anthracothorax-prevostii           18         8
    ##  2 Arremon-aurantiirostris            18         9
    ##  3 Arremonops-conirostris             18         9
    ##  4 Cercomacroides-tyrannina           18         9
    ##  5 Chondrohierax-uncinatus            18         2
    ##  6 Chordeiles-acutipennis             18         5
    ##  7 Cyanerpes-lucidus                  18        11
    ##  8 Cyanoloxia-cyanoides               18        11
    ##  9 Dendrocolaptes-sanctithomae        18        11
    ## 10 Harpagus-bidentatus                18        11
    ## # ℹ 27 more rows
…
    ## [1] "Stable: 0.888+/-0.014"

    ## [1] "Diffuse: 0.865+/-0.017"

    ## [1] "Split: 0.908+/-0.017"

    x=x[order(x$d.stat),]

    x[which(x$d.stat<0.8),]

    ## # A tibble: 36 × 4
    ##    Name                       Cluster.x Cluster.y d.stat
    ##    <chr>                          <dbl>     <dbl>  <dbl>
    ##  1 Celeus-castaneus                   1         1  0.645
    ##  2 Myiobius-atricaudus                6         7  0.657
    ##  3 Phyllomyias-burmeisteri            5         3  0.664
    ##  4 Rhodinocichla-rosea                4         6  0.683
    ##  5 Phaeomyias-murina                  4         7  0.695
    ##  6 Asio-clamator                      5         3  0.700
    ##  7 Cyanolyca-cucullata                4         6  0.706
    ##  8 Anabacerthia-variegaticeps         4         6  0.713
    ##  9 Arremon-costaricensis              6         7  0.718
    ## 10 Microchera-albocoronata           11         3  0.720
    ## # ℹ 26 more rows

    x[which(x$d.stat>0.935),]

    ## # A tibble: 37 × 4
    ##    Name                     Cluster.x Cluster.y d.stat
    ##    <chr>                        <dbl>     <dbl>  <dbl>
    ##  1 Melanerpes-rubricapillus         6         7  0.935
    ##  2 Pitangus-sulphuratus            15         2  0.936
    ##  3 Pheugopedius-atrogularis        12        10  0.936
    ##  4 Cantorchilus-thoracicus         12        10  0.936
    ##  5 Zonotrichia-capensis             5         8  0.937
    ##  6 Panterpe-insignis               14         6  0.937
    ##  7 Molothrus-aeneus                15         3  0.937
    ##  8 Catharus-fuscater               16         8  0.937
    ##  9 Catharus-frantzii               14         6  0.938
    ## 10 Patagioenas-flavirostris        15         3  0.938
    ## # ℹ 27 more rows
…
